{
  "rules": {
    "align": [
      true,
      "parameters",
      "statements"
    ],
    "array-type": [
      true,
      "array-simple"
    ],
    "arrow-parens": true,
    "arrow-return-shorthand": true,
    "ban-types": [
      true,
      [
        "Object",
        "Avoid using the `Object` type. Did you mean `object`?"
      ],
      [
        "Function",
        "Avoid using the `Function` type. Prefer a specific function type, like `() => void`."
      ],
      [
        "Boolean",
        "Avoid using the `Boolean` type. Did you mean `boolean`?"
      ],
      [
        "Number",
        "Avoid using the `Number` type. Did you mean `number`?"
      ],
      [
        "String",
        "Avoid using the `String` type. Did you mean `string`?"
      ],
      [
        "Symbol",
        "Avoid using the `Symbol` type. Did you mean `symbol`?"
      ]
    ],
    "class-name": true,
    "comment-format": [
      true,
      "check-space"
    ],
    "curly": true,
    "eofline": true,
    "forin": true,
    "import-spacing": true,
    "indent": [
      true,
      "spaces",
      4
    ],
    "jsdoc-format": true,
    "label-position": true,
    "max-line-length": [
      false,
      140
    ],
    "member-access": [
      true,
      "no-public"
    ],
    "new-parens": true,
    "no-angle-bracket-type-assertion": true,
    "no-arg": true,
    "no-bitwise": true,
    "no-conditional-assignment": true,
    "no-consecutive-blank-lines": true,
    "no-console": [
      true,
      "debug",
      "info",
      "log",
      "time",
      "timeEnd",
      "trace"
    ],
    "no-construct": true,
    "no-debugger": false,
    "no-default-export": true,
    "no-duplicate-switch-case": true,
    "no-duplicate-super": true,
    "no-duplicate-variable": true,
    "no-inferrable-types": false,
    "no-empty": true,
    "no-eval": true,
    "no-misused-new": true,
    "no-parameter-properties": false,
    "no-reference": true,
    "no-shadowed-variable": true,
    "no-string-literal": false,
    "no-switch-case-fall-through": false,
    "no-trailing-whitespace": true,
    "no-unnecessary-initializer": true,
    "no-unsafe-finally": true,
    "no-unused-expression": false,
    "no-var-keyword": true,
    "no-var-requires": true,
    "one-line": [
      true,
      "check-catch",
      "check-else",
      "check-finally",
      "check-open-brace",
      "check-whitespace"
    ],
    "one-variable-per-declaration": [
      true,
      "ignore-for-loop"
    ],
    "only-arrow-functions": [
      true,
      "allow-declarations",
      "allow-named-functions"
    ],
    "ordered-imports": [
      true,
      {
        "import-sources-order": "case-insensitive",
        "named-imports-order": "case-insensitive"
      }
    ],
    "prefer-const": true,
    "quotemark": [
      true,
      "single",
      "avoid-escape"
    ],
    "radix": true,
    "semicolon": [
      true,
      "always"
    ],
    "space-before-function-paren": [
      true,
      {
        "anonymous": "never",
        "asyncArrow": "always",
        "constructor": "never",
        "method": "never",
        "named": "never"
      }
    ],
    "switch-default": true,
    "trailing-comma": [
      true,
      {
        "multiline": "always",
        "singleline": "never"
      }
    ],
    "triple-equals": [
      true,
      "allow-null-check"
    ],
    "unified-signatures": true,
    "typedef-whitespace": [
      true,
      {
        "call-signature": "nospace",
        "index-signature": "nospace",
        "parameter": "nospace",
        "property-declaration": "nospace",
        "variable-declaration": "nospace"
      }
    ],
    "use-isnan": true,
    "variable-name": [
      true,
      "ban-keywords",
      "check-format",
      "allow-leading-underscore",
      "allow-pascal-case"
    ],
    "whitespace": [
      true,
      "check-branch",
      "check-decl",
      "check-operator",
      "check-rest-spread",
      "check-type",
      "check-typecast"
    ]
  },
  "jsRules": {
    "align": [
      true,
      "parameters",
      "statements"
    ],
    "arrow-parens": true,
    "arrow-return-shorthand": true,
    "class-name": true,
    "comment-format": [
      true,
      "check-space"
    ],
    "curly": true,
    "eofline": true,
    "forin": true,
    "import-spacing": true,
    "indent": [
      true,
      "spaces",
      4
    ],
    "jsdoc-format": true,
    "label-position": true,
    "max-line-length": [
      false,
      140
    ],
    "new-parens": true,
    "no-any": false,
    "no-arg": true,
    "no-bitwise": true,
    "no-conditional-assignment": true,
    "no-consecutive-blank-lines": true,
    "no-construct": true,
    "no-debugger": false,
    "no-default-export": true,
    "no-duplicate-switch-case": true,
    "no-duplicate-super": true,
    "no-duplicate-variable": true,
    "no-inferrable-types": false,
    "no-empty": true,
    "no-eval": true,
    "no-parameter-properties": false,
    "no-reference": true,
    "no-shadowed-variable": true,
    "no-string-literal": false,
    "no-switch-case-fall-through": false,
    "no-trailing-whitespace": true,
    "no-unnecessary-initializer": true,
    "no-unsafe-finally": true,
    "no-unused-expression": false,
    "no-use-before-declare": true,
    "no-var-keyword": true,
    "one-line": [
      true,
      "check-catch",
      "check-else",
      "check-finally",
      "check-open-brace",
      "check-whitespace"
    ],
    "one-variable-per-declaration": [
      true,
      "ignore-for-loop"
    ],
    "only-arrow-functions": [
      true,
      "allow-declarations",
      "allow-named-functions"
    ],
    "ordered-imports": [
      true,
      {
        "import-sources-order": "case-insensitive",
        "named-imports-order": "case-insensitive"
      }
    ],
    "prefer-const": true,
    "quotemark": [
      true,
      "single",
      "avoid-escape"
    ],
    "radix": true,
    "semicolon": [
      true,
      "always"
    ],
    "space-before-function-paren": [
      true,
      {
        "anonymous": "never",
        "asyncArrow": "always",
        "constructor": "never",
        "method": "never",
        "named": "never"
      }
    ],
    "switch-default": true,
    "trailing-comma": [
      true,
      {
        "multiline": {
          "objects": "always",
          "arrays": "always",
          "functions": "never",
          "typeLiterals": "always"
        },
        "singleline": "never"
      }
    ],
    "triple-equals": [
      true,
      "allow-null-check"
    ],
    "use-isnan": true,
    "variable-name": [
      true,
      "ban-keywords",
      "check-format",
      "allow-leading-underscore",
      "allow-pascal-case"
    ],
    "whitespace": [
      true,
      "check-branch",
      "check-decl",
      "check-operator",
      "check-rest-spread",
      "check-type",
      "check-typecast"
    ]
  }
}